…
Abrimos la tabla y la procesamos
================================================

```r
file <- "ISIC_Rev_4_spanish_structure.txt"
t <- tabla.ciiu4(file)
t
```

```
# A tibble: 766 x 3
   ciiu4
   <chr>
 1     A
 2    01
 3   011
 4  0111
 5  0112
 6  0113
 7  0114
 8  0115
 9  0116
10  0119
# ... with 756 more rows, and 2 more variables: desc.ciiu4 <chr>,
#   seccion <chr>
```
…
```r
sacarNans <- function(x) {
  if_else(is.nan((x)), NA_real_, x)
}

marco_rpae_tidy <- marco_rpae_tidy %>%
  mutate_if(is.numeric, funs(sacarNans(.)))

marco_rpae_tidy
```

```
# A tibble: 2,951,220 x 9
       rut nro_ine                      razon_social depto  year ciiu4
     <dbl>   <dbl>                             <chr> <dbl> <chr> <dbl>
 1   67347     859        Colegio Liceo Beata Imelda    10  2011  8510
 2   70340  190505              Raffo Puppo Teresita    NA  2011    NA
 3   73946  847387            Schandy Gabarda Thomas    10  2011    NA
 4 1004845  818971        Gerona Milans Beatriz Alba    10  2011    NA
 5 1007096       0     De Castro Morros Marta Teresa    10  2011    NA
 6 1007273  798452 Mosteiro Cousillas Maria Carolina    10  2011    NA
 7 1007528  709676  Sanjuan Martinez Alfredo Gabriel    NA  2011    NA
 8 1012417  709678        Maestro Irigaray Ana Maria    10  2011    NA
 9 1015555  709679            Cesar Cardoso Campomar    10  2011    NA
10 1032308  798453    Goldschmidt Treszczanska Elisa     9  2011    NA
# ... with 2,951,210 more rows, and 3 more variables: mimp <dbl>,
#   po <dbl>, vtas <dbl>
```
…
